,0,1,2,3,4,5,6,7
0.0,0j,0j,0j,0j,0j,0j,(1+0j),0j
2.0,(-2.068889286933246e-17-1.2372301614948804e-17j),0j,0j,(0.1644456825897906-0.5611254297458442j),(-0+0j),(0.524058537343933+0.16588478377716592j),(0.30453441021767474+0.5130297754630158j),0j
4.0,(1.2239708620322516e-17-3.882219832607768e-17j),0j,0j,(-0.9011917358828545-0.008196881264610434j),(-0+0j),(0.07222457519163646+0.13836975588119965j),(-0.13946844639950112-0.37943674066786914j),0j
6.0,(9.252566893105491e-18-8.360800681893164e-18j),0j,0j,(-0.27572206449716763-0.5781370174790281j),(-0+0j),(-0.48735069171309614-0.4991857589547279j),(0.16905930363329796+0.27286767006821594j),0j
8.0,(4.4050531454435134e-18+2.8277554458746415e-18j),0j,0j,(-0.2830799404518219+0.7192826312181346j),(-0+0j),(0.0334454900481027+0.10863102239091782j),(0.6156567288320853+0.10269243475170414j),0j
10.0,(8.797854198664881e-18+5.3559503343627226e-18j),0j,-0j,(-0.13701255599028755-0.3619207720098323j),(-0+0j),(-0.3531309364791726+0.6768669418970151j),(-0.07206013682239362+0.5120526688127686j),(-0+0j)
12.0,(-1.8793613268237507e-17-1.3035737852274003e-17j),0j,0j,(-0.219344967003525+0.016988315723125036j),0j,(0.3024528096286502-0.14754188587934614j),(-0.4362042274413298-0.8050333809230072j),0j
14.0,(-1.905266168746817e-17-4.9637460575268756e-18j),0j,0j,(-0.30426195404277473-0.24385787014033458j),(-0+0j),(0.10912541190304248-0.4920076408685016j),(0.7659763574807825-0.08519593932322994j),0j
16.0,(6.35455740331313e-18+2.0137872740606628e-17j),0j,0j,(0.6150451642147666+0.7057975381482973j),0j,(-0.1314252434088885+0.08279177931691754j),(-0.25536743174618803+0.18501265523104893j),0j
18.0,(-1.93912027650476e-17+6.0328061853758964e-18j),0j,0j,(0.5344492308305782-0.5274064265776673j),(-0+0j),(-0.12200703956617043-0.6068800197758194j),(0.014107849864583258+0.2298224822217724j),0j
20.0,(-6.724995092671445e-18-2.768923705385859e-18j),0j,0j,(-0.22118175386304462+0.6676084728131367j),(-0+0j),(-0.02746913519902011+0.3857957494104113j),(0.5858715244330417-0.11197857827709495j),0j
22.0,(-2.6801810616340612e-17+2.2735594192342945e-17j),0j,0j,(0.35424472242192023+0.3516520669974923j),(-0+0j),(0.15990031599283175-0.4706967323160701j),(0.04780557417008646-0.7081261205627442j),0j
24.0,(4.1081382821148335e-17+2.7154161261884116e-17j),0j,0j,(-0.23538857222909026-0.19526056267109562j),0j,(0.4250715592793422+0.18620489768546533j),(0.6975878721151887-0.45219309921414574j),0j
26.0,(-2.526920153714445e-17+2.9987169808713846e-17j),0j,0j,(0.3528149398991296+0.3032718117102912j),0j,(0.04709375283184797+0.19946033380751116j),(-0.7420598345596958+0.43691278537114975j),0j
28.0,(-3.425360793380646e-17-3.7118233352983135e-17j),0j,0j,(0.646922943267016+0.6141853239121505j),0j,(-0.0073482432121984576+0.27983253966837046j),(-0.34921412647166405+0.06289944596532612j),0j
30.0,(-2.0929731727538608e-17+2.981651646371811e-17j),0j,0j,(-0.24874862740041037-0.8449494069956847j),(-0+0j),(-0.4214719184074596-0.10209103959257584j),(0.17255774446515645+0.07966985903083018j),0j
