,0,1,2,3,4,5,6,7
0.0,0j,0j,0j,0j,0j,0j,(1+0j),0j
2.0,(1.5701348709392536e-17+9.411331577466641e-18j),0j,0j,(-0.4965182178212867+0.06853809762087837j),(-0+0j),(-0.02325036380474399-0.5574529198988183j),(0.4252376878329489-0.5066071062192083j),0j
4.0,(-3.929002249485177e-17-4.887945623952104e-18j),0j,0j,(0.4341071171094607+0.7813032377758242j),0j,(-0.0033187644490313348-0.08521163440553947j),(-0.3239309643232002+0.2981827544192277j),0j
6.0,(-1.2071323066649549e-17-4.2790377886856384e-17j),0j,0j,(0.6351598652945916-0.19084554944388765j),(-0+0j),(0.4744925057381072-0.4890162653263976j),(-0.22608855687701818+0.21155103514348084j),0j
8.0,(-2.6023232534290715e-18-1.0408685966892457e-17j),0j,0j,(0.14746750047213725-0.7630541700904754j),(-0+0j),(0.0037428126125612637-0.17208162452915948j),(-0.6037329712438257+0.043382889464514574j),0j
10.0,(-6.122115123412685e-17+1.0667200427128036e-17j),0j,0j,(0.26456383869350486+0.4258693285795742j),(-0+0j),(0.5227767431037609-0.48139508117581753j),(0.050092202909751526-0.4910145762888717j),0j
12.0,(-5.3835774537074184e-17+1.9430302519128583e-17j),0j,0j,(-0.05443825648520323+0.02692217472473907j),(-0+0j),(0.08877379454236602+0.33306815867159534j),(0.9313608689583485-0.100316596801099j),0j
14.0,(4.624713323820833e-18-2.2112610563249366e-17j),0j,0j,(-0.3087376873145937-0.2620066140128298j),0j,(0.24238085968165296-0.3028359425741546j),(0.8232277458187793-0.08872183442932957j),0j
16.0,(-9.281800875453078e-18-4.739729498705371e-18j),0j,0j,(0.39717352174812387-0.7506086330407332j),(-0+0j),(0.1570300048230575+0.16559272975449177j),(0.3940197820861635+0.26741150010688153j),0j
18.0,(6.684131851254047e-18+1.245227401294611e-17j),0j,0j,(0.7599822449114935+0.12261298060636422j),0j,(0.418178316903829-0.32452034393544j),(-0.1835711038176632+0.30579100034628176j),0j
20.0,(3.4793328380129156e-18+7.420853087156561e-19j),0j,-0j,(0.5900010306736213-0.48404008198488097j),(-0+0j),(0.347010634430366-0.24111048815117508j),(-0.46349837011592654-0.15563610066996217j),(-0+0j)
22.0,(1.8377632675637637e-17-1.8888070648180998e-17j),0j,0j,(0.4379547962263196+0.4978852143038457j),(-0+0j),(0.30008423700847364-0.34143620603234903j),(0.17288493890569923-0.5690232645936593j),0j
24.0,(-2.2731954994950293e-17+3.7391677723554215e-17j),0j,0j,(-0.04833831182384438-0.16664721190934406j),0j,(-0.43690513053677693+0.37423774384223535j),(0.24104507448392687+0.7621347678950332j),0j
26.0,(-4.562598990651674e-18-6.375317754344538e-18j),0j,0j,(-0.1878904964909718-0.1504524408389153j),0j,(0.117679093207482-0.1519441986447619j),(0.9272724675778866-0.21281820120955813j),0j
28.0,(-4.4719556806278834e-17+1.6434828792307876e-17j),0j,0j,(0.41282675445262124+0.5286188153023056j),0j,(-0.29171886766487365+0.21344827158236776j),(-0.6375077444065209+0.11428049853336852j),0j
30.0,(6.045616219960927e-19+2.083838090053203e-17j),0j,0j,(0.8387034393334829+0.12230893870872606j),(-0+0j),(0.12150409963645191-0.14875405446729204j),(-0.07370869223056803+0.4891759173373801j),0j
