,0,1,2,3,4,5,6,7
0.0,0j,0j,0j,0j,0j,0j,(1+0j),0j
2.0,(2.989232847567774e-17+3.0395752672192995e-17j),0j,0j,(0.4262356365444319-0.32948882251329886j),0j,(0.2975085957062462+0.44084435738594707j),(-0.07439067332329036+0.6491311221492457j),0j
4.0,(4.0001878579639325e-18+1.9057870320467683e-18j),0j,0j,(-0.6567275193330351-0.5921380690465369j),0j,(0.025606548161732468+0.13626546445810483j),(0.14908089136554778-0.4202765616274934j),(-0+0j)
6.0,(-2.6251884960374883e-17+2.5687434170463258e-17j),0j,0j,(0.5713782116911216+0.2555785630435149j),(-0+0j),(0.7050056803272218+0.04829012152330925j),(-0.32944468295829643+0.01754403195934634j),0j
8.0,(1.5777041261839012e-17+2.4047702500234312e-17j),0j,0j,(-0.5436801688827291+0.6389189077272789j),0j,(-0.0589639819594317+0.09841943248871128j),(0.4677182088759909+0.25351734563565836j),0j
10.0,(-1.469159382312565e-17-5.5260094611296806e-18j),0j,0j,(-0.4638868583805791-0.13905499894353876j),0j,(0.0165479753262055+0.7641153194284742j),(0.23836172378422002+0.35286020128734896j),0j
12.0,(2.919661643144184e-17+1.8934920326472956e-17j),0j,0j,(-0.00011632821654740388+0.06268169741584052j),0j,(-0.3621476919535309-0.1493533583608715j),(-0.23784295449869852+0.8865914187669559j),0j
14.0,(3.0295255881369e-17+4.372061342515386e-17j),0j,0j,(0.2754632052694365+0.13480568507168064j),0j,(-0.21291577377502766+0.49758202871861673j),(-0.7803516477427425+0.06385729131646423j),0j
16.0,(5.0500736672623476e-17+2.570581904284816e-17j),0j,0j,(0.876514037970353-0.14200048174355734j),(-0+0j),(-0.1361091228389562+0.2675680677777127j),(0.1599380873309797+0.3096133854214372j),0j
18.0,(1.1858666903945106e-17-3.1821587769571163e-18j),0j,0j,(0.6123245089064655+0.1224389467129029j),0j,(0.4557644463544123-0.5053814909561962j),(-0.06810531052386032+0.3772232559597658j),0j
20.0,(2.279720166317642e-17-1.1539696820604834e-17j),0j,0j,(0.6357068528810542-0.3789868602856659j),(-0+0j),(0.4373977452720802-0.0023830992235545634j),(-0.3809092218645851-0.3403402046458602j),0j
22.0,(1.9387972391789343e-17-1.6360005825393055e-17j),0j,0j,(-0.4172419590178695+0.4250739578572664j),0j,(0.6098414316457996+0.12604615822349416j),(0.4655158951707353+0.20179698604086505j),0j
24.0,(-3.5515540597301316e-17-7.282585485325562e-18j),0j,0j,(-0.1574327307217795+0.007935857440609387j),(-0+0j),(0.5672977928720186-0.2654703817479439j),(-0.23364330819757392-0.7268159688778145j),0j
26.0,(-1.3576565338912834e-17+1.8829691421120123e-17j),0j,0j,(-0.09462752961648614+0.09030320945386147j),0j,(-0.35879211963006974+0.10625748296632914j),(-0.28262468703070126-0.8734940237270276j),0j
28.0,(2.6688943407709886e-18+2.2948864125874163e-18j),0j,0j,(0.24556274979332515-0.7959932302830339j),(-0+0j),(0.39388579193129425+0.19906168253785156j),(0.2741104055227545+0.19022520417002958j),0j
30.0,(2.725376488868869e-18+3.0643691736842032e-18j),0j,0j,(-0.5089737178492093-0.6315705709278014j),0j,(-0.42633775471088786+0.17209593346016944j),(0.24594732708124584-0.2649403505939172j),0j
