,0,1,2,3,4,5,6,7
0.0,0j,0j,0j,0j,0j,0j,(1+0j),0j
2.0,(2.9264966386607067e-18+4.353254914800429e-17j),0j,0j,(-0.45313645430972577-0.380546803255599j),(-0+0j),(0.38068082356923444-0.41257363157922045j),(0.5740516066818235-0.07198156893089996j),0j
4.0,(-4.218080911439216e-17+1.8953304570231748e-17j),0j,0j,(0.2723264660168335+0.8388844495838212j),(-0+0j),(0.12537514786229886-0.11636964721886757j),(-0.34164665240170544+0.27591288219400545j),0j
6.0,(-6.697201618398075e-18-3.415078658778487e-18j),0j,0j,(-0.4861626778656649+0.33781662326310213j),0j,(-0.48994843259148424+0.5496410147173548j),(0.19447220372829666-0.2637264302573509j),0j
8.0,(-1.6723299901698275e-17+3.0089306187893036e-18j),0j,0j,(-0.232958735145275+0.8094630516144075j),0j,(-0.020003430127827765+0.049908464492491124j),(0.5264018807663754+0.1025176261496083j),0j
10.0,(1.6439616325275884e-18+2.481008533426889e-17j),0j,0j,(0.14454340046073966+0.37003957904670753j),0j,(0.6380507219337753-0.5644152077854319j),(0.06584556204572575-0.3349164474034986j),0j
12.0,(-5.856717539390809e-17-5.2006520141031866e-17j),0j,0j,(0.13540638026880006-0.03327308454712541j),0j,(0.007435837996320138+0.3144789895122877j),(0.8502807647426063-0.398281695040799j),0j
14.0,(5.407614379902018e-18+5.33414039918798e-18j),0j,0j,(-0.32496208815948-0.01571016189950683j),0j,(0.07342430995612448-0.6442898055689505j),(0.6359176351148289-0.2631750568907999j),0j
16.0,(6.979741320651988e-18+9.315623856838288e-18j),0j,0j,(-0.5875856248153462-0.6230929392965096j),(-0+0j),(0.3243341722660412+0.027845972217494352j),(0.09194231168102046-0.3899703583142047j),0j
18.0,(-8.57646278043494e-18+5.071403604676093e-19j),0j,0j,(0.4357081300699402+0.2726696939141131j),(-0+0j),(0.6766259151217394-0.27460266579504045j),(-0.19702117368558295+0.4046764972854515j),0j
20.0,(1.2040053369932115e-17-1.2664931706594447e-18j),0j,0j,(0.6657758271041778-0.32929141388652916j),0j,(0.4500795525884345+0.2216660032051608j),(-0.2391392776647695-0.37338277682182286j),0j
22.0,(-8.090977196934128e-18-1.053243994750395e-18j),0j,0j,(-0.011276165356580103+0.6261131997217351j),0j,(0.5589983001172993-0.35785434401727173j),(0.40827029955295524+0.025132462393080784j),0j
24.0,(3.217011477776133e-17-1.2385997202456807e-17j),0j,0j,(0.09573379723920798-0.0847358975820787j),(-0+0j),(0.26553484885299705+0.7126992214364865j),(0.5742463379423796-0.2746763093084845j),0j
26.0,(-2.2623832777892896e-17+8.793900362405381e-18j),0j,0j,(0.04520792249974306+0.002486586584792741j),0j,(0.07530716064990173-0.3561043228954618j),(0.8783732434245088+0.3064784635767034j),0j
28.0,(1.2017976837025629e-17+7.577345451791159e-19j),0j,0j,(0.34672303000507126+0.5778863190797157j),0j,(-0.6309645921452318+0.2359378413197295j),(-0.3033574372449737-0.00467187811780434j),(-0+0j)
30.0,(3.553870374365375e-18-3.4131891683655505e-17j),0j,0j,(0.12336587868026139-0.7853215492302303j),(-0+0j),(-0.3714144677559922+0.09719529447004896j),(0.3564102997767137-0.30598527804383785j),0j
