,0,1,2,3,4,5,6,7
0.0,0j,0j,0j,0j,0j,0j,(1+0j),0j
2.0,(4.658911928407403e-18-3.2020467233032447e-18j),0j,0j,(0.48980152304118063-0.378555884496037j),0j,(0.350724044857179+0.4560626032747542j),(-0.048073080731898366+0.5324269297304383j),0j
4.0,(-7.502394316173486e-18-2.9239708723145913e-18j),0j,0j,(-0.09043126345613439-0.8842481827361495j),0j,(-0.1987724819153177+0.021212186060297317j),(0.3906326280429617-0.1318067958094776j),0j
6.0,(5.769823772984309e-18-1.3835025425556754e-18j),0j,0j,(0.3763995854243716-0.5255351947536673j),(-0+0j),(0.23740340183533418-0.6422315546725823j),(-0.23270838349788422+0.24323070200374902j),0j
8.0,(9.028878815749298e-18-1.2970223052644831e-17j),0j,0j,(0.7109055600267449-0.23519430735081157j),(-0+0j),(0.013082221814769646-0.14178729977758261j),(-0.34432615080515194-0.5481438145949566j),0j
10.0,(1.9107862207502407e-17-4.984747757123809e-19j),0j,0j,(0.0016893491351442358+0.3097190784703671j),(-0+0j),(0.511894469947539-0.5220510564361415j),(0.06319300468924444-0.604569788196821j),0j
12.0,(1.3234453604267105e-17+2.2707615931487565e-17j),0j,0j,(-0.1397151943909876-0.17571972429504618j),(-0+0j),(0.10061586295334422+0.10669060167232422j),(0.5533038949919755-0.7886384509860157j),0j
14.0,(-1.1518042219508913e-18+8.029173422942295e-18j),0j,0j,(-0.37189943177281726+0.41672260024549906j),(-0+0j),(-0.512806433683811-0.20293935027972007j),(-0.02957104752306855-0.6188730256850841j),0j
16.0,(-5.385731476040164e-17+4.0957322021293644e-17j),0j,0j,(0.00871870174668038+0.9675099220688312j),(-0+0j),(0.02885256838750192-0.024403836234204057j),(-0.24742995347949837+0.03462564272110048j),0j
18.0,(3.974311728297039e-18-1.683903044301242e-17j),0j,0j,(0.029337125429802935+0.6881467822274955j),(-0+0j),(0.4649949226279132+0.48366565374286224j),(-0.07364141745513395-0.26460827299313555j),0j
20.0,(-4.471187205580447e-18+1.7327172615595517e-17j),0j,0j,(0.6830213476769524+0.22513889401035167j),0j,(0.27017182648731497-0.007881441618955376j),(-0.046216481352111316-0.6384382671200883j),0j
22.0,(6.385293274355124e-18+6.018862632271514e-18j),0j,0j,(-0.39666627362740847+0.13635005354428786j),(-0+0j),(0.5465614624693772+0.36018458723783353j),(0.6099262938709727+0.15359712617586052j),0j
24.0,(3.223197774308607e-18+1.3969475690136597e-17j),0j,0j,(-0.03414063795744654+0.2865002209986196j),(-0+0j),(-0.06572255939261382-0.3426674634750999j),(-0.8800527096079372-0.1432439289525163j),0j
26.0,(-2.4613608020694618e-17+2.7074112520294917e-17j),0j,0j,(0.06278340187111522-0.4463848558613946j),(-0+0j),(0.2091468720093514-0.2429691485030679j),(0.6995768181430335+0.45234351905201337j),0j
28.0,(-8.888799614103956e-19-9.036431186055092e-18j),0j,0j,(0.2367792749773599+0.8870361233275913j),0j,(-0.21113099553684037+0.11005414462826697j),(-0.31438762109540874-0.03968252170523348j),0j
30.0,(-2.5446281620347352e-17-9.144619440511667e-18j),0j,0j,(0.8415892538211349-0.11907606035340912j),(-0+0j),(0.1458899675262803-0.468957079901282j),(-0.07704543318274337+0.1743783114805966j),0j
