,0,1,2,3,4,5,6,7
0.0,0j,0j,0j,0j,0j,0j,(1+0j),0j
2.0,(5.974208278930802e-17+7.403688694828556e-18j),0j,0j,(-0.38575558617667566-0.4198609737631943j),(-0+0j),(0.38880429728303667-0.3502880260056009j),(0.6332750483665001-0.0012731110954997127j),0j
4.0,(8.192996373348075e-18+4.358329132409986e-17j),0j,0j,(0.8991007135175211-0.017506612217525863j),(-0+0j),(-0.018660487859960655-0.08748780992154448j),(0.06773082167514718+0.42275481142633764j),0j
6.0,(-3.426253157186537e-17-1.1834875950352048e-17j),0j,0j,(0.62469450175964-0.3365666948015282j),(-0+0j),(0.3426934363087749-0.5278296684386935j),(-0.16104372013958929+0.27294982955120806j),0j
8.0,(1.5319521760998532e-17+9.569704151129325e-18j),0j,0j,(0.40843000582685485+0.6858924330078804j),(-0+0j),(0.15424363688970003+0.07507027532113253j),(0.3819813726708112-0.4328973156044923j),0j
10.0,(-1.060746980204923e-17-2.4823370085115213e-17j),0j,0j,(-0.4128643372755337+0.22656653069463184j),(-0+0j),(0.41785492007263203+0.5440997366053553j),(0.5512931560301375+0.06032615259106788j),0j
12.0,(-3.03595412340552e-17+1.1490753967457819e-18j),0j,0j,(0.08033487374507803+0.07574004650911208j),0j,(0.26532093656866307-0.08964664828531459j),(-0.08025080953007058-0.9502304141914557j),0j
14.0,(1.373627813674931e-18+1.719297696547053e-17j),0j,0j,(0.28046044366086836-0.3355261845828366j),0j,(0.2368326653460216+0.3852434836897439j),(0.04689816210315667+0.7759268189023169j),0j
16.0,(2.3805521169801514e-17-5.215270353242239e-17j),0j,0j,(-0.7143838156859725+0.3882792823475597j),0j,(-0.05145134755231083-0.14186914603114442j),(-0.1937565864084888-0.5278060744709078j),0j
18.0,(1.466754388490829e-18-2.0920703194333798e-17j),0j,0j,(0.7423966417031782-0.19069674187256946j),(-0+0j),(0.33451573305385046-0.35152049728647117j),(-0.08543134703245114+0.41196605236131717j),0j
20.0,(2.9367131273708274e-18-4.482271615122189e-18j),0j,0j,(0.7863442766355122+0.35717339091124944j),0j,(0.314319031858857+0.1545714600247832j),(-0.11486475967555632-0.3438126588264709j),0j
22.0,(-1.3137153958635301e-17+3.6256284697855975e-17j),0j,0j,(0.5076293230089838+0.4315565162530951j),(-0+0j),(0.2916480392139262-0.4275476764441457j),(0.04830030002519664-0.5346802131258397j),0j
24.0,(-4.210465166097851e-17-1.1707350677937931e-17j),0j,0j,(-0.16248447124565774+0.09538958493382071j),(-0+0j),(0.30140471060981494+0.4734932262019568j),(0.7844021977705544-0.18485719078784224j),0j
26.0,(4.1363706054652384e-17-2.6391015649006656e-17j),0j,0j,(0.06629517742473512-0.13365966498457715j),(-0+0j),(0.057548269442273904+0.14311010176809j),(0.049209979999772+0.9754620016848333j),0j
28.0,(1.897299643575129e-17+1.6362243642711545e-17j),0j,0j,(-0.5262123869321136-0.3392151949722962j),(-0+0j),(0.22863195863016192-0.3369608237471419j),(0.6053383829634408-0.27528866341152597j),0j
30.0,(-1.920520813769982e-17-1.4143797852162747e-17j),0j,0j,(0.8784442937759005-0.022963269380826434j),0j,(0.04630665555108938-0.12625217600309813j),(0.026646598933805526+0.4571808739036649j),0j
