,0,1,2,3,4,5,6,7
0.0,0j,0j,0j,0j,0j,0j,(1+0j),0j
2.0,(-4.8642593632425713e-17-1.6643829435075396e-17j),0j,0j,(-0.4464744410543879-0.41583409483903777j),0j,(0.3543902429333112-0.3635916660765528j),(0.6029184135650083-0.08025348411233424j),0j
4.0,(2.92630425488601e-17+1.133575960786271e-17j),0j,0j,(0.5393398274874813+0.7065742638115012j),0j,(0.12083912277829847-0.07173130415276105j),(-0.31343094990183734+0.3031153679036347j),0j
6.0,(-1.476119251853453e-17+2.5695934093037523e-17j),0j,-0j,(-0.10181672654911528-0.7052216170466452j),(-0+0j),(-0.36358097938357975-0.5157188691841306j),(0.11798864271948366+0.28322680775673403j),(-0+0j)
8.0,(-3.1470761041031315e-17-4.9337023193417164e-17j),0j,0j,(0.6366344117232503+0.43900455286836443j),0j,(0.2202150040725761-0.050564586268557185j),(0.12480904279142871-0.5790879948720493j),0j
10.0,(-1.9553680277931956e-17-1.9430383276659906e-18j),0j,0j,(-0.23177552953094502-0.28367119292741605j),0j,(-0.225578439200603+0.6567076457007468j),(0.18829814556019173+0.5900881310773693j),0j
12.0,(-4.24437262404941e-17-5.540883771327362e-17j),0j,0j,(-0.08077452492932385-0.12378544685745642j),(-0+0j),(0.11581882442552209+0.13524551913139407j),(0.8801874559294862-0.41438789938497333j),0j
14.0,(2.030477530940339e-17+3.607428185778553e-17j),0j,0j,(0.40523309090054666+0.2763949862835804j),0j,(-0.22200748011016608+0.4515056790796327j),(-0.699844694420529+0.12831468279935376j),0j
16.0,(3.017428334836392e-17-2.5120646490560895e-17j),0j,0j,(-0.9042127470761938+0.10551962031878104j),0j,(0.07164378202620324-0.08682508354965507j),(-0.09748303696986463-0.38612245288174163j),0j
18.0,(-1.6187872179609794e-17-4.374317837997297e-18j),0j,0j,(0.18737599992541754-0.6430706264202573j),(-0+0j),(-0.20843640652553788-0.6352525407218188j),(0.1491397860278184+0.2865592473681129j),0j
20.0,(-1.6835408733792841e-18+4.1843890127220544e-18j),0j,0j,(0.39974897328422543-0.6963578178515596j),(-0+0j),(0.16976840616391653-0.20595220300906486j),(-0.5241239659487517-0.09665916685783243j),0j
22.0,(-1.1508126017008019e-17-1.3726358069597241e-17j),0j,0j,(-0.0500605520806191+0.5309815435833589j),0j,(0.6033384763510069-0.23869420995903728j),(0.44659212200761356-0.30840845505016595j),0j
24.0,(1.8604284999398594e-17+4.6014239810742243e-17j),0j,0j,(-0.18289486953451634-0.048425858127786214j),(-0+0j),(0.5084890077074965+0.100144237467783j),(0.41540541813300114-0.7232238949944395j),0j
26.0,(-1.251408843804383e-17+1.2359660455435778e-17j),0j,0j,(0.11333572749344377-0.2979855838465689j),0j,(0.3069150184318516-0.16400648118747252j),(0.5544640762578954+0.6854445553231197j),0j
28.0,(6.72107874055122e-18-7.921070603021763e-18j),0j,0j,(0.4385917467726855-0.7661561526803818j),(-0+0j),(0.34533434319252265+0.1468892964964833j),(0.1428748930977083+0.24371401330607945j),0j
30.0,(-2.0762220906513125e-18+5.541991790526261e-19j),0j,0j,(0.5165908524374445+0.675077692127917j),(-0+0j),(0.42493137229765476-0.26524728941082937j),(-0.09913757245470542+0.1290462970969236j),0j
