,0,1,2,3,4,5,6,7
0.0,0j,0j,0j,0j,0j,0j,(1+0j),0j
2.0,(-3.0625834707656834e-17+5.755829835389444e-17j),0j,0j,(-0.31517832965630277+0.5094662588390086j),(-0+0j),(-0.4363897026556764-0.30286190979943495j),(-0.1794334712095576-0.5716196917864754j),0j
4.0,(1.4311015768597747e-17-1.125391980453134e-17j),0j,0j,(-0.18676246091111826-0.8755513415152101j),(-0+0j),(-0.08263571758769235+0.029987675109528985j),(0.41233129880891456-0.14416868282739184j),0j
6.0,(1.816257037766838e-17+2.2765532317809546e-17j),0j,0j,(0.07328033158412534-0.7041955283897003j),(-0+0j),(-0.20668420490655776-0.5983031133533592j),(0.07400645101529091+0.30426422727756575j),0j
8.0,(-8.288755967972779e-18+6.973395068440986e-18j),0j,0j,(0.14021488621921346+0.7609387248458996j),(-0+0j),(0.1484280019978289+0.1578160713210526j),(0.5066534939782308-0.3125339911238475j),0j
10.0,(1.9517393166346797e-17-3.555608738079022e-17j),0j,0j,(0.3743034596464521-0.2113123772375896j),0j,(-0.5170276271949537-0.40422903285593803j),(-0.6192728095627325-0.03203916935071505j),0j
12.0,(-7.662993517789612e-18-2.8441259995846944e-17j),0j,0j,(-0.025465627576375244-0.15298453293077438j),0j,(0.11315509363605245+0.27377986237288987j),(0.8992034712818942-0.28217169148230237j),0j
14.0,(-1.689423285160649e-17+8.192421939486088e-18j),0j,0j,(-0.2210622955389432-0.36867638382116064j),0j,(0.28956059253895655-0.3573801535726103j),(0.7592359958009913+0.16493628243836428j),0j
16.0,(-2.799134543550383e-17+2.1148999329777147e-17j),0j,0j,(0.8200522825676868-0.351212959992825j),0j,(0.051432696684224184+0.13958125462351156j),(0.10808429911710249+0.41273871388868366j),0j
18.0,(8.346644519592703e-18+1.8875880534089998e-18j),0j,0j,(0.5783105372674617-0.5114437012921199j),0j,(-0.020344858362437435-0.5624307179019026j),(0.061539851844600424+0.2888821279130021j),0j
20.0,(1.34494180298484e-17+1.3017450183336379e-17j),0j,0j,(-0.0015514595942657805-0.7504427592409562j),0j,(-0.05563874624420925-0.4446186267240434j),(-0.38400157557278664+0.2976485422775712j),(-0+0j)
22.0,(2.0709359951629326e-17-1.3751193216990367e-17j),0j,0j,(-0.45106587492476613-0.47630588143818764j),0j,(-0.2820925089720658+0.34138471863087716j),(-0.15693588187818955+0.5906976409568798j),0j
24.0,(-5.671042174570331e-18+1.1003728290500481e-17j),0j,0j,(-0.19570810222352575-0.011707187943447106j),0j,(0.3933962103464844+0.38883441845143857j),(0.7857054199446277-0.19564122841751547j),0j
26.0,(-2.0163503948644265e-17-1.3641116146646243e-17j),0j,-0j,(0.14232791268205428+0.1965642036496349j),(-0+0j),(-0.12219724939739277+0.07005064406329087j),(-0.9559862503671108+0.08576892053777635j),(-0+0j)
28.0,(-6.210884860615442e-18+6.7376986370253726e-18j),0j,0j,(0.549548306268729-0.3685969263221842j),0j,(0.2473852152138564+0.30852168125927365j),(0.020099415554201305+0.6366662437760724j),0j
30.0,(2.0055794496203146e-17+4.307019508881448e-17j),0j,0j,(0.011071229332691224-0.8865698908663893j),(-0+0j),(-0.1429718768878288-0.13450079365782505j),(0.41416048827864665+0.06173269282642865j),0j
