,0,1,2,3,4,5,6,7
0.0,0j,0j,0j,0j,0j,0j,(1+0j),0j
2.0,(-7.48827452874958e-18+8.82997462930605e-18j),0j,0j,(0.034888258019621365-0.5151468006999018j),(-0+0j),(0.6042430827795148+0.1788436018784178j),(0.3531932773288095+0.459963427905969j),0j
4.0,(-1.1984168021244348e-17+1.5342990132434096e-17j),0j,0j,(0.824141431416975-0.27835324696533437j),0j,(-0.11194122854567992-0.07396194813297305j),(0.28747725858975065+0.37771151465055464j),0j
6.0,(-1.2653541916815916e-17-1.1205391903120037e-17j),0j,0j,(0.6114491655058665-0.15519033355242193j),(-0+0j),(0.6155843253687203-0.33808718754133055j),(-0.278402840322919+0.17689185638386226j),0j
8.0,(-2.396596214752388e-17+2.5564025930122045e-17j),0j,0j,(0.7367194468802281-0.3864711030481419j),(-0+0j),(-0.006888301161251227-0.07049471539444743j),(-0.3135554911932506-0.45227264282550783j),0j
10.0,(4.266069174531589e-17-2.7330121044840477e-17j),0j,0j,(-0.13943970589306673-0.35079462242697335j),0j,(-0.6576003511515209+0.521145405241487j),(-0.030853645401243218+0.3905342476957804j),(-0+0j)
12.0,(3.6334320711142583e-17+1.523781007682393e-17j),0j,0j,(-0.0007404232976936723+0.10208973142420419j),0j,(-0.257267693637365-0.0069897037496051695j),(0.3305416417679892+0.9022659471687936j),0j
14.0,(-6.264772774308662e-18+1.3966880117047428e-17j),0j,0j,(0.3824236944060331-0.008697728021899026j),0j,(-0.07534968479386725+0.5579104258137833j),(-0.6116376994158729+0.4032792753255543j),0j
16.0,(4.445115085630204e-19+1.0355344052536555e-17j),0j,0j,(0.4415603411762853-0.769869214469125j),0j,(-0.007974082678314239+0.12898798846940782j),(0.42387059021558304+0.12632534701841447j),0j
18.0,(3.5668559824396024e-18-2.6696064993222376e-17j),0j,0j,(0.6746166487864458+0.09564436297076934j),(-0+0j),(0.5677042373683198-0.30657832071476676j),(-0.2429312311636273+0.2458670007934219j),0j
20.0,(5.1846368340030024e-18+3.1021580925886326e-18j),0j,0j,(-0.7516505842701027-0.28420589626375625j),0j,(-0.29214256152944806-0.1630931804805485j),(0.04471409262095935+0.4902064828622368j),0j
22.0,(-6.3175598455392094e-18-6.3474407757877254e-18j),0j,0j,(-0.5507450417588484-0.17188495937360812j),(-0+0j),(0.06788017568149146+0.5910900189219763j),(0.17392182637815773+0.5318754828987049j),0j
24.0,(-5.4984359874857796e-18-8.592102154899444e-18j),0j,0j,(-0.07255480173498026-0.0777690159562286j),(-0+0j),(0.2141936894181039+0.5627332834194294j),(0.7840621418946567-0.10670826441944498j),0j
26.0,(-1.64887091338172e-17+1.06430635531331e-17j),0j,0j,(-0.006237474800340981-0.15795543941441492j),(-0+0j),(0.20628088347865509-0.23818848330836048j),(0.7952261326589692+0.49329607188209235j),0j
28.0,(2.7599179200009045e-18+2.828637258177389e-17j),0j,0j,(0.5810023932947471-0.5707313932439717j),0j,(0.261816831316522+0.30678729314579434j),(0.149259737022567+0.3895599187020894j),0j
30.0,(2.2068867731194708e-17-2.462023839175823e-17j),0j,0j,(0.8475098803660367+0.046917474168368j),0j,(0.09623140963671814-0.3619739158224172j),(0.054797096812956636+0.3691035512481474j),(-0+0j)
