,0,1,2,3,4,5,6,7
0.0,0j,0j,0j,0j,0j,0j,(1+0j),0j
2.0,(1.7295399472663622e-17+8.117651102977772e-18j),0j,0j,(-0.44203233541991777-0.3353259840891305j),(-0+0j),(0.3245522840008273-0.42493344164981006j),(0.6297159771264103-0.09858535442495231j),0j
4.0,(-2.4680049043594574e-17-7.151059911042878e-18j),0j,0j,(0.4215957601439482+0.7950550221770905j),0j,(0.0545346289427738-0.09972521407082698j),(-0.30520763250713673+0.28995462355965684j),0j
6.0,(1.5917374899971734e-17+4.3336479617640775e-17j),0j,0j,(0.556227263453428-0.3102152891277336j),0j,(0.4076794816829085-0.5608448739538356j),(-0.13771304353213926+0.3076740011734561j),0j
8.0,(-1.725836412931622e-17-1.5738193337415432e-17j),0j,0j,(-0.38813777692172824+0.7660043359897764j),0j,(-0.08282954871050069+0.1497301499429337j),(0.4756129866754045+0.08425472292580158j),0j
10.0,(-1.086112660839783e-17-1.1447690311367365e-17j),0j,0j,(-0.0319530843197402+0.516632571980123j),0j,(0.6581922543216563-0.23937170169353844j),(0.3728372956419201-0.320228483632225j),0j
12.0,(-8.355795521802721e-18-4.3368231943559366e-17j),0j,0j,(0.04154131715042593+0.09851861380978026j),0j,(-0.2290240791995292-0.3980888318208032j),(-0.8114767038366796+0.34517707623641614j),0j
14.0,(-9.194536440350265e-18-1.2538462448182743e-17j),0j,0j,(0.1737691764169452-0.26504552787353003j),0j,(0.3868506608266115+0.008631184897878424j),(0.26170575036470384+0.825431590486418j),0j
16.0,(3.38647111792476e-18-3.940374179343835e-18j),0j,0j,(0.36949016198146545-0.7885719919935448j),0j,(0.24873274384203686+0.09529484459097927j),(0.2960446098128083+0.28816616279191754j),0j
18.0,(4.328427785307626e-17+1.4256253469216987e-17j),0j,0j,(-0.06907378469891662-0.8093008082408129j),0j,(-0.4720390624873484-0.1794608474018652j),(0.29122889834763976+0.02048586222800447j),0j
20.0,(-2.4614269093681455e-18-1.238211366508204e-17j),0j,0j,(0.6231381813623672-0.19261015306748636j),(-0+0j),(0.5394556008816908-0.20230009745692973j),(-0.41356648691882475-0.2676288885894678j),0j
22.0,(2.8236278563376386e-17+1.7248414596434056e-17j),0j,0j,(0.5900668987925142-0.1577531342246686j),(-0+0j),(-0.23120269861816128-0.307998486518296j),(-0.44390726698021765-0.5306256555877699j),0j
24.0,(-3.7503140892905355e-17-3.0839549714981005e-17j),0j,0j,(-0.22402041427081848-0.02897261328691335j),0j,(0.541271982586737+0.269966303900148j),(0.676268045137359-0.3546544916118619j),0j
26.0,(-1.3783556144582753e-17-1.142300226788588e-17j),0j,0j,(-0.223391168757459-0.24819940017042652j),0j,(0.07446096150271829-0.067068127164299j),(0.847472665875566-0.4003010811885751j),0j
28.0,(-1.3918574478198917e-17+1.1750596066937308e-17j),0j,0j,(0.6063459594991736-0.4467629697919107j),0j,(0.335055881408324+0.1865678421788068j),(0.020354870060215136+0.5341002734365576j),0j
30.0,(1.883904782758108e-17-6.6832931707900516e-18j),0j,0j,(-0.4091524198016015-0.8228040782837298j),(-0+0j),(-0.27215583085697376-0.026570312943974952j),(0.27671640052213836-0.06512297607477951j),0j
